20191107-linear_models
…
modelr::add_predictions(nyc_airbnb, fit)

## # A tibble: 40,492 x 6
##    price stars boro  neighborhood room_type        pred
##    <dbl> <dbl> <fct> <chr>        <fct>           <dbl>
##  1    99   5   Bronx City Island  Private room     89.5
##  2   200  NA   Bronx City Island  Private room     NA  
##  3   300  NA   Bronx City Island  Entire home/apt  NA  
##  4   125   5   Bronx City Island  Entire home/apt  89.5
##  5    69   5   Bronx City Island  Private room     89.5
##  6   125   5   Bronx City Island  Entire home/apt  89.5
##  7    85   5   Bronx City Island  Entire home/apt  89.5
##  8    39   4.5 Bronx Allerton     Private room     73.5
##  9    95   5   Bronx Allerton     Entire home/apt  89.5
## 10   125   4.5 Bronx Allerton     Entire home/apt  73.5
## # ... with 40,482 more rows
…
nyc_airbnb %>% 
  filter(neighborhood == "Midtown", room_type == "Shared room")

## # A tibble: 25 x 5
##    price stars boro      neighborhood room_type  
##    <dbl> <dbl> <fct>     <chr>        <fct>      
##  1    80    NA Manhattan Midtown      Shared room
##  2   400    NA Manhattan Midtown      Shared room
##  3    74     5 Manhattan Midtown      Shared room
##  4    60     5 Manhattan Midtown      Shared room
##  5   400    NA Manhattan Midtown      Shared room
##  6    99     5 Manhattan Midtown      Shared room
##  7    65     5 Manhattan Midtown      Shared room
##  8    95     5 Manhattan Midtown      Shared room
##  9   109     5 Manhattan Midtown      Shared room
## 10    55     5 Manhattan Midtown      Shared room
## # ... with 15 more rows
